## Interface: 60200
## Title: RollPlus
## Author: thor
## Notes: Enhanced DnD-esque roll commands
## Version 0.1
ChatThrottleLib.lua
RollPlusUtil.lua
RollPlusTransmit.lua
RollPlusEvents.lua
RollPlus.lua